INDEX VERSION 1.130+E:\error_log_folder\LOG_Report_Creator\.metadata\.plugins\org.eclipse.jdt.core
930900409.index
1440962187.index
2029276588.index
633707102.index
596583112.index
3378756994.index
2135707647.index
3952405420.index
3335633474.index
3273046749.index
609380112.index
3803010993.index
977141205.index
2431855298.index
3044127640.index
1273106464.index
1309969525.index
3400634606.index
3112085991.index
1397654706.index
3702044481.index
439415431.index
1892916030.index
2344653569.index
4238059749.index
2188183422.index
1595295120.index
1950857984.index
633769300.index
1450455510.index
2414022393.index
2291693210.index
2231548461.index
